{
  "page": 1,
  "total_results": 128242,
  "total_pages": 6413,
  "results": [
    {
      "vote_count": 47,
      "id": 567604,
      "video": false,
      "vote_average": 7.6,
      "title": "Once Upon a Deadpool",
      "popularity": 126.445,
      "poster_path": "\/5Ka49BWWyKMXr93YMbH5wLN7aAM.jpg",
      "original_language": "en",
      "original_title": "Once Upon a Deadpool",
      "genre_ids": [
        35,
        28
      ],
      "backdrop_path": "\/hcg4rxdb3fZGXIov4STyLTlGlhI.jpg",
      "adult": false,
      "overview": "A kidnapped Fred Savage is forced to endure Deadpool's PG-13 rendition of Deadpool 2 as a Princess Bride-esque story that's full of magic, wonder & zero F's.",
      "release_date": "2018-12-11"
    },
    {
      "vote_count": 2544,
      "id": 332562,
      "video": false,
      "vote_average": 7.5,
      "title": "A Star Is Born",
      "popularity": 78.148,
      "poster_path": "\/wrFpXMNBRj2PBiN4Z5kix51XaIZ.jpg",
      "original_language": "en",
      "original_title": "A Star Is Born",
      "genre_ids": [
        18,
        10402,
        10749
      ],
      "backdrop_path": "\/wqtaHWOEZ3rXDJ8c6ZZShulbo18.jpg",
      "adult": false,
      "overview": "Seasoned musician Jackson Maine discovers—and falls in love with—struggling artist Ally. She has just about given up on her dream to make it big as a singer—until Jack coaxes her into the spotlight. But even as Ally's career takes off, the personal side of their relationship is breaking down, as Jack fights an ongoing battle with his own internal demons.",
      "release_date": "2018-10-03"
    },
    {
      "vote_count": 770,
      "id": 707,
      "video": false,
      "vote_average": 6.2,
      "title": "A View to a Kill",
      "popularity": 26.825,
      "poster_path": "\/veDMW7eX6tat86EapsvGEICJ8Tq.jpg",
      "original_language": "en",
      "original_title": "A View to a Kill",
      "genre_ids": [
        12,
        28,
        53
      ],
      "backdrop_path": "\/9SudvdR6HYtgTqMz17RYXdWuTUl.jpg",
      "adult": false,
      "overview": "A newly developed microchip designed by Zorin Industries for the British Government that can survive the electromagnetic radiation caused by a nuclear explosion has landed in the hands of the KGB. James Bond must find out how and why. His suspicions soon lead him to big industry leader Max Zorin.",
      "release_date": "1985-05-24"
    },
    {
      "vote_count": 1067,
      "id": 484247,
      "video": false,
      "vote_average": 6.5,
      "title": "A Simple Favor",
      "popularity": 54.075,
      "poster_path": "\/aIYsjQM0piKc0ibPBCTWv3sqshj.jpg",
      "original_language": "en",
      "original_title": "A Simple Favor",
      "genre_ids": [
        53,
        80,
        9648,
        35,
        18
      ],
      "backdrop_path": "\/xXGNyEG2v48q0bVR4AH4Vca2yvy.jpg",
      "adult": false,
      "overview": "Stephanie, a dedicated mother and popular vlogger, befriends Emily, a mysterious upper-class woman whose son Nicky attends the same school as Miles, Stephanie's son. When Emily asks her to pick Nicky up from school and then disappears, Emily undertakes an investigation that will dive deep into Emily's cloudy past.",
      "release_date": "2018-08-29"
    },
    {
      "vote_count": 4484,
      "id": 447332,
      "video": false,
      "vote_average": 7.3,
      "title": "A Quiet Place",
      "popularity": 43.558,
      "poster_path": "\/nAU74GmpUk7t5iklEp3bufwDq4n.jpg",
      "original_language": "en",
      "original_title": "A Quiet Place",
      "genre_ids": [
        18,
        27,
        53,
        878
      ],
      "backdrop_path": "\/roYyPiQDQKmIKUEhO912693tSja.jpg",
      "adult": false,
      "overview": "A family is forced to live in silence while hiding from creatures that hunt by sound.",
      "release_date": "2018-04-03"
    },
    {
      "vote_count": 264,
      "id": 438590,
      "video": false,
      "vote_average": 5.4,
      "title": "A-X-L",
      "popularity": 32.891,
      "poster_path": "\/9kB56ZdMB6RgY5QtX9Bar45jCeI.jpg",
      "original_language": "en",
      "original_title": "A-X-L",
      "genre_ids": [
        878,
        28,
        12,
        10751
      ],
      "backdrop_path": "\/l1nYo0yzKjf84atnBDbx0do16vQ.jpg",
      "adult": false,
      "overview": "The life of a teenage boy is forever altered by a chance encounter with cutting edge military technology.",
      "release_date": "2018-08-23"
    },
    {
      "vote_count": 5229,
      "id": 62,
      "video": false,
      "vote_average": 8,
      "title": "2001: A Space Odyssey",
      "popularity": 29.228,
      "poster_path": "\/aGZyJJ87ZA1b0p16eGGrerOdccN.jpg",
      "original_language": "en",
      "original_title": "2001: A Space Odyssey",
      "genre_ids": [
        878,
        9648,
        12
      ],
      "backdrop_path": "\/6gyZF4SeifiUUYDELkCS8nOqsu2.jpg",
      "adult": false,
      "overview": "Humanity finds a mysterious object buried beneath the lunar surface and sets off to find its origins with the help of HAL 9000, the world's most advanced super computer.",
      "release_date": "1968-04-09"
    },
    {
      "vote_count": 2955,
      "id": 348350,
      "video": false,
      "vote_average": 6.6,
      "title": "Solo: A Star Wars Story",
      "popularity": 43.556,
      "poster_path": "\/3IGbjc5ZC5yxim5W0sFING2kdcz.jpg",
      "original_language": "en",
      "original_title": "Solo: A Star Wars Story",
      "genre_ids": [
        28,
        12,
        878
      ],
      "backdrop_path": "\/bJekWFxi4FwojQbKfTaW3iCAMhL.jpg",
      "adult": false,
      "overview": "Through a series of daring escapades deep within a dark and dangerous criminal underworld, Han Solo meets his mighty future copilot Chewbacca and encounters the notorious gambler Lando Calrissian.",
      "release_date": "2018-05-15"
    },
    {
      "vote_count": 3672,
      "id": 37735,
      "video": false,
      "vote_average": 6.8,
      "title": "Easy A",
      "popularity": 10.975,
      "poster_path": "\/1pgPO3OfSm2inpODMqg2RNmLW90.jpg",
      "original_language": "en",
      "original_title": "Easy A",
      "genre_ids": [
        35
      ],
      "backdrop_path": "\/wu4tawMznxUvqP21lUH6RKrv3LQ.jpg",
      "adult": false,
      "overview": "Olive, an average high school student, sees her below-the-radar existence turn around overnight once she decides to use the school's gossip grapevine to advance her social standing. Now her classmates are turning against her and the school board is becoming concerned, including her favorite teacher and the distracted guidance counselor. With the support of her hilariously idiosyncratic parents and a little help from a long-time crush, Olive attempts to take on her notorious new identity and crush the rumor mill once and for all.",
      "release_date": "2010-09-16"
    },
    {
      "vote_count": 1484,
      "id": 9476,
      "video": false,
      "vote_average": 6.8,
      "title": "A Knight's Tale",
      "popularity": 17.78,
      "poster_path": "\/1ZUpkMivvlF0ZoyXQzHF4El3izv.jpg",
      "original_language": "en",
      "original_title": "A Knight's Tale",
      "genre_ids": [
        12,
        18,
        10749,
        28
      ],
      "backdrop_path": "\/kohGZ3OqK31UYmf7b5fM5pB80VW.jpg",
      "adult": false,
      "overview": "William Thatcher, a peasant, is sent to apprentice with a Knight named Hector as a young boy. Urged by his father to \"change his Stars\", he assumes Sir Hector's place in a tournament when Hector dies in the middle of it. He wins. With the other apprentices, he trains and assumes the title of Sir Ulrich von Lichtenstein.",
      "release_date": "2001-05-11"
    },
    {
      "vote_count": 4414,
      "id": 9487,
      "video": false,
      "vote_average": 6.9,
      "title": "A Bug's Life",
      "popularity": 16.318,
      "poster_path": "\/u9qGMRwcPwP0WETxulS5hKUsEum.jpg",
      "original_language": "en",
      "original_title": "A Bug's Life",
      "genre_ids": [
        12,
        16,
        35,
        10751
      ],
      "backdrop_path": "\/bHMHpXNjeKRxcjWcpbIAD5f0aIK.jpg",
      "adult": false,
      "overview": "On behalf of \"oppressed bugs everywhere,\" an inventive ant named Flik hires a troupe of warrior bugs to defend his bustling colony from a horde of freeloading grasshoppers led by the evil-minded Hopper.",
      "release_date": "1998-11-25"
    },
    {
      "vote_count": 107,
      "id": 448776,
      "video": false,
      "vote_average": 6.7,
      "title": "A Prayer Before Dawn",
      "popularity": 20.051,
      "poster_path": "\/73KrcLh1DpnBP3HwGpqoUUwKWF4.jpg",
      "original_language": "en",
      "original_title": "A Prayer Before Dawn",
      "genre_ids": [
        18,
        28,
        80
      ],
      "backdrop_path": "\/tyaVwOLIpAzZFP0qmXm2VZhYkxZ.jpg",
      "adult": false,
      "overview": "The true story of Billy Moore, an English boxer incarcerated in Thailand's most notorious prison. Thrown into a world of drugs and violence, he finds his best chance to escape is to fight his way out in Muay Thai tournaments.",
      "release_date": "2018-06-20"
    },
    {
      "vote_count": 5962,
      "id": 185,
      "video": false,
      "vote_average": 8.2,
      "title": "A Clockwork Orange",
      "popularity": 20.033,
      "poster_path": "\/4sHeTAp65WrSSuc05nRBKddhBxO.jpg",
      "original_language": "en",
      "original_title": "A Clockwork Orange",
      "genre_ids": [
        878,
        18
      ],
      "backdrop_path": "\/unMc1jEyqCnzba976GviSFKGagt.jpg",
      "adult": false,
      "overview": "Demonic gang-leader Alex goes on the spree of rape, mugging and murder with his pack of \"droogs\". But he's a boy who also likes Beethoven's Ninth and a bit of \"the old in-out, in-out\". He later finds himself at the mercy of the state and its brainwashing experiment designed to take violence off the streets.",
      "release_date": "1971-12-18"
    },
    {
      "vote_count": 1272,
      "id": 381289,
      "video": false,
      "vote_average": 7.2,
      "title": "A Dog's Purpose",
      "popularity": 13.962,
      "poster_path": "\/3jcNvhtVQe5Neoffdic39fRactM.jpg",
      "original_language": "en",
      "original_title": "A Dog's Purpose",
      "genre_ids": [
        35,
        18,
        10751,
        14
      ],
      "backdrop_path": "\/2ddVTlMyATZdvUHE7DPExA2X6xF.jpg",
      "adult": false,
      "overview": "A dog goes on quest to discover his purpose in life over the course of several lifetimes with multiple owners.",
      "release_date": "2017-01-19"
    },
    {
      "vote_count": 261,
      "id": 382598,
      "video": false,
      "vote_average": 5.9,
      "title": "Full Speed",
      "popularity": 8.692,
      "poster_path": "\/oqPx1XWs9T6ENBn0gA3NqO2zowv.jpg",
      "original_language": "fr",
      "original_title": "À fond",
      "genre_ids": [
        10751,
        35
      ],
      "backdrop_path": "\/xJcGC2lNSD3cM9ywtLQP1j5mkh3.jpg",
      "adult": false,
      "overview": "A family together with their grandpa go on a vacation, when their new car won't stop and it nearly escapes crashing into a hundred cars.",
      "release_date": "2016-11-11"
    },
    {
      "vote_count": 889,
      "id": 407451,
      "video": false,
      "vote_average": 5.1,
      "title": "A Wrinkle in Time",
      "popularity": 17.642,
      "poster_path": "\/yAcb58vipewa1BfNit2RjE6boXA.jpg",
      "original_language": "en",
      "original_title": "A Wrinkle in Time",
      "genre_ids": [
        12,
        878,
        10751,
        14
      ],
      "backdrop_path": "\/zqUaMojohr96itJYCE3W1NauTn7.jpg",
      "adult": false,
      "overview": "After the disappearance of her scientist father, three peculiar beings send Meg, her brother, and her friend to space in order to find him.",
      "release_date": "2018-03-08"
    },
    {
      "vote_count": 293,
      "id": 11227,
      "video": false,
      "vote_average": 6.7,
      "title": "Angel-A",
      "popularity": 8.56,
      "poster_path": "\/ojUGHGfroGRwW7jO0727txepQbC.jpg",
      "original_language": "fr",
      "original_title": "Angel-A",
      "genre_ids": [
        10749,
        35,
        18,
        14
      ],
      "backdrop_path": "\/d5K3tXg22EONfYq4NodtjpOB8cO.jpg",
      "adult": false,
      "overview": "A beautiful and mysterious woman helps an inept scam artist get his game together... but is their meeting purely coincidence?",
      "release_date": "2005-12-21"
    },
    {
      "vote_count": 4945,
      "id": 453,
      "video": false,
      "vote_average": 7.8,
      "title": "A Beautiful Mind",
      "popularity": 17.487,
      "poster_path": "\/hGBgv2Ir3t1wMP1Xp5CAQXArkV9.jpg",
      "original_language": "en",
      "original_title": "A Beautiful Mind",
      "genre_ids": [
        18,
        10749
      ],
      "backdrop_path": "\/9PwUQZDHGPKsgbnoBl1Ah9zXWjk.jpg",
      "adult": false,
      "overview": "John Nash is a brilliant but asocial mathematician fighting schizophrenia. After he accepts secret work in cryptography, his life takes a turn for the nightmarish.",
      "release_date": "2001-12-11"
    },
    {
      "vote_count": 889,
      "id": 431530,
      "video": false,
      "vote_average": 6.2,
      "title": "A Bad Moms Christmas",
      "popularity": 15.627,
      "poster_path": "\/gPNHolu7AGnrB7r5kvJRRTfwMFR.jpg",
      "original_language": "en",
      "original_title": "A Bad Moms Christmas",
      "genre_ids": [
        35
      ],
      "backdrop_path": "\/aIF2xRhE7iGxQd6ITGNrwYdGB9e.jpg",
      "adult": false,
      "overview": "Amy, Kiki and Carla – three under-appreciated and over-burdened women – rebel against the challenges and expectations of the Super Bowl for mothers: Christmas. And if creating a more perfect holiday for their families wasn’t hard enough, they have to do all of that while hosting and entertaining their own mothers.",
      "release_date": "2017-11-01"
    },
    {
      "vote_count": 296,
      "id": 11257,
      "video": false,
      "vote_average": 7.1,
      "title": "A Room with a View",
      "popularity": 7.66,
      "poster_path": "\/fS4mDKBIHeTmWXPGgz64d2dMyJG.jpg",
      "original_language": "en",
      "original_title": "A Room with a View",
      "genre_ids": [
        18,
        10749
      ],
      "backdrop_path": "\/8fAXEcTr8AlHsZl6kXKMBXKeqs0.jpg",
      "adult": false,
      "overview": "When Lucy Honeychurch and chaperon Charlotte Bartlett find themselves in Florence with rooms without views, fellow guests Mr Emerson and son George step in to remedy the situation. Meeting the Emersons could change Lucy's life forever but, once back in England, how will her experiences in Tuscany affect her marriage plans?",
      "release_date": "1985-12-13"
    }
  ]
}